city,link
אור עקיבא,https://city4u.co.il/PortalServicesSite/cityPay/510200/mislaka/4
בני  ברק,https://city4u.co.il/PortalServicesSite/cityPay/261000/mislaka/4
בת  ים,https://www.metropark.co.il/select-authority/
גבעתיים,https://www.pay24.co.il/payDesign/SearchPay/SearchPay?ReshutMast=124&payOrigin=MAST_Web
הרצליה,https://city4u.co.il/PortalServicesSite/cityPay/264000/mislaka/4
חולון,https://city4u.co.il/PortalServicesSite/cityPay/266000/mislaka/4
חיפה,https://city4u.co.il/PortalServicesSite/cityPay/140000/mislaka/4
טבריה,https://city4u.co.il/PortalServicesSite/cityPay/367000/mislaka/16
יבנה,https://www.citypay.co.il/htmls_Heb/hanya_regular.asp?SId=4&LAMASID=526600
יהוד מונוס,https://city4u.co.il/PortalServicesSite/cityPay/594000/mislaka/4
כרמיאל,https://city4u.co.il/PortalServicesSite/cityPay/511390/mislaka/4
מגדל העמק,https://city4u.co.il/PortalServicesSite/cityPay/508740/mislaka/4
מודעין מכבים רעות,https://city4u.co.il/PortalServicesSite/cityPay/813510/mislaka/4
נהריה,https://city4u.co.il/PortalServicesSite/cityPay/291000/mislaka/4
קרית  טבעון,https://city4u.co.il/PortalServicesSite/cityPay/423000/mislaka/4
קרית מוצקין,https://city4u.co.il/PortalServicesSite/cityPay/382000/mislaka/4
ראשון לציון,https://city4u.co.il/PortalServicesSite/cityPay/283000/mislaka/4
רמת השרון,https://city4u.co.il/PortalServicesSite/cityPay/426500/mislaka/4
אשקלון,https://city4u.co.il/PortalServicesSite/cityPay/371000/mislaka/16
באר שבע,https://city4u.co.il/PortalServicesSite/cityPay/390000/mislaka/36
יבנה,https://city4u.co.il/PortalServicesSite/cityPay/526600?SId=4&LAMASID=526600
